Data Wrangling :: Documentation for Hugo Learn Theme
…
gapmEU21c_l2h <- arrange(gapmEU21c, desc(lifeExp)) # note the use of desc()
head(gapmEU21c_l2h, 2)

## # A tibble: 2 x 7
##   country     continent  year lifeExp     pop gdpPercap LifeExp_month
##   <fct>       <fct>     <int>   <dbl>   <int>     <dbl>         <dbl>
## 1 Iceland     Europe     2007    81.8  301931    36181.          981.
## 2 Switzerland Europe     2007    81.7 7554661    37506.          980.

😃🙌 Solution 2):

arrange(gapminder, pop)

## # A tibble: 1,704 x 6
##    country               continent  year lifeExp   pop gdpPercap
##    <fct>                 <fct>     <int>   <dbl> <int>     <dbl>
##  1 Sao Tome and Principe Africa     1952    46.5 60011      880.
##  2 Sao Tome and Principe Africa     1957    48.9 61325      861.
##  3 Djibouti              Africa     1952    34.8 63149     2670.
##  4 Sao Tome and Principe Africa     1962    51.9 65345     1072.
##  5 Sao Tome and Principe Africa     1967    54.4 70787     1385.
##  6 Djibouti              Africa     1957    37.3 71851     2865.
##  7 Sao Tome and Principe Africa     1972    56.5 76595     1533.
##  8 Sao Tome and Principe Africa     1977    58.6 86796     1738.
##  9 Djibouti              Africa     1962    39.7 89898     3021.
## 10 Sao Tome and Principe Africa     1982    60.4 98593     1890.
## # … with 1,694 more rows

arrange(gapminder, desc(lifeExp))

## # A tibble: 1,704 x 6
##    country          continent  year lifeExp       pop gdpPercap
##    <fct>            <fct>     <int>   <dbl>     <int>     <dbl>
##  1 Japan            Asia       2007    82.6 127467972    31656.
##  2 Hong Kong, China Asia       2007    82.2   6980412    39725.
##  3 Japan            Asia       2002    82   127065841    28605.
##  4 Iceland          Europe     2007    81.8    301931    36181.
##  5 Switzerland      Europe     2007    81.7   7554661    37506.
##  6 Hong Kong, China Asia       2002    81.5   6762476    30209.
##  7 Australia        Oceania    2007    81.2  20434176    34435.
##  8 Spain            Europe     2007    80.9  40448191    28821.
##  9 Sweden           Europe     2007    80.9   9031088    33860.
## 10 Israel           Asia       2007    80.7   6426679    25523.
## # … with 1,694 more rows
…
