Vizuelizacija podataka :: Rtoolbox
…
Da li životni vek zavisi od bruto nacionalnog dohotka po glavi stanovnika?

Bacite pogled na podatke. (tip: sample_n(df, n))

Napravite tačkasti grafikon: šta vam on govori?

Napravite regresionu analizu: da li tu postoji relacija? Koliko je jaka? Da li je relacija linearna? Šta možemo zaključiti iz grafikona?

Koja se još pitanja otvaraju; možete li dati odgovor na njih?

😃🙌 SRešenje: kod Q1; primer

sample_n(gapminder, 30)

## # A tibble: 30 x 6
##    country      continent  year lifeExp      pop gdpPercap
##    <fct>        <fct>     <int>   <dbl>    <int>     <dbl>
##  1 Iraq         Asia       1987    65.0 16543189    11644.
##  2 Myanmar      Asia       1962    45.1 23634436      388 
##  3 Italy        Europe     1957    67.8 49182000     6249.
##  4 Netherlands  Europe     2007    79.8 16570613    36798.
##  5 Djibouti     Africa     1972    44.4   178848     3694.
##  6 Iraq         Asia       1992    59.5 17861905     3746.
##  7 South Africa Africa     1997    60.2 42835005     7479.
##  8 El Salvador  Americas   1967    55.9  3232927     4359.
##  9 Burkina Faso Africa     1957    34.9  4713416      617.
## 10 Korea, Rep.  Asia       2002    77.0 47969150    19234.
## # … with 20 more rows
…
